<svg viewBox="0 0 24 24" xmlns="http://www.w3.org/2000/svg">
  <path stroke="currentColor" fill="none" stroke-width="2" d="m2.806 17.493 9.91-4.657 8.538-10.329M2.567 20.537l10.09-1.373 9.552-6.328"/>
</svg>
